<?xml version="1.0" encoding="utf-8"?>
<!-- EXT:bootstrap_package: Modify icons (e.g. without footer columns) [TASK-belayout-5] -->
<svg version="1.1" id="Ebene_1" xmlns="http://www.w3.org/2000/svg" xmlns:xlink="http://www.w3.org/1999/xlink" x="0px" y="0px"
	 width="86px" height="128px" viewBox="0 0 86 128" style="enable-background:new 0 0 86 128;" xml:space="preserve">
<style type="text/css">
	.st0{opacity:0.5;fill:#333333;enable-background:new    ;}
	.st1{fill:#333333;}
	.st2{fill:#FFFFFF;}
</style>
<rect x="64" y="2" class="st0" width="20" height="30"/>
<rect x="2" y="2" class="st1" width="60" height="124"/>
<rect x="64" y="34" class="st1" width="20" height="92"/>
<rect x="66" y="6" class="st2" width="12" height="2"/>
<rect x="79.8" y="6" class="st2" width="2" height="2"/>
<rect x="66" y="10" class="st2" width="12" height="2"/>
<rect x="79.8" y="10" class="st2" width="2" height="2"/>
<rect x="66" y="14" class="st2" width="12" height="2"/>
<rect x="79.8" y="14" class="st2" width="2" height="2"/>
<rect x="66" y="18" class="st2" width="12" height="2"/>
<rect x="79.8" y="18" class="st2" width="2" height="2"/>
<rect x="66" y="22" class="st2" width="12" height="2"/>
<rect x="79.8" y="22" class="st2" width="2" height="2"/>
</svg>
